{
    "minimumVersion": 1,
    "tips": [
        {
            "desc": "FruitServerへようこそ。",
            "thumb": "https://i.gyazo.com/8ae5ebf6590953e36b472829b835bacc.png"
        },
        {
            "desc": "栗目には気をつけよう。",
            "thumb": "https://i.gyazo.com/be0fe8e8949ff5c83b8bff0d2ee208b7.png"
        },
        {
            "desc": "SignPictureを使ってお家を飾ろう。",
            "thumb": "https://i.gyazo.com/4303f75edbad3edeff82deee11bf54f9.jpg"
        },
        {
            "desc": "工夫をこらして自動化してみよう。",
            "thumb": "https://i.gyazo.com/4c1f41afeac77c9b3556e93878391496.png"
        },
        {
            "desc": "DOOM！BOOM！EXPLOSION！",
            "thumb": "https://i.gyazo.com/d3339035a391dbdbe4215d4bd739d3cf.png"
        }
    ]
}